0.01204819277108
0.01204819277108
0.01204819277108
0.01204819277108
0.01204819277108
0.01204819277108
0.01204819277108
0.01204819277108
0.01204819277108
0.01204819277108
0.01204819277108
0.01204819277108
0.01204819277108
0.01204819277108
0.01204819277108
0.01204819277108
0.01204819277108
0.01204819277108
0.01204819277108
0.01204819277108
0.01204819277108
0.01204819277108
0.01204819277108
0.01204819277108
0.01204819277108
0.01204819277108
0.01204819277108
0.01204819277108
0.01204819277108
0.01204819277108
0.01204819277108
0.01204819277108
0.01204819277108
0.01204819277108
0.01204819277108
0.01204819277108
0.01204819277108
0.01204819277108
0.01204819277108
0.01204819277108
0.01204819277108
0.01204819277108
0.01204819277108
0.01204819277108
0.01204819277108
0.01204819277108
0.01204819277108
0.01204819277108
0.01204819277108
0.01204819277108
0.01204819277108
0.01204819277108
0.01204819277108
0.01204819277108
0.01204819277108
0.01204819277108
0.01204819277108
0.01204819277108
0.01204819277108
0.01204819277108
0.01204819277108
0.01204819277108
0.01204819277108
0.01204819277108
0.01204819277108
0.01204819277108
0.01204819277108
0.01204819277108
0.01204819277108
0.01204819277108
0.01204819277108
0.01204819277108
0.01204819277108
0.01204819277108
0.01204819277108
0.01204819277108
0.01204819277108
0.01204819277108
0.01204819277108
0.01204819277108
0.01204819277108
0.01204819277108
0.01204819277108