gmmmmggggggg	Sex.mL2449$1	su1	21	33	9.1041
gmmmmggggggg	Rsp.mL2585$1	su1	9	21	9.1041
gmmmmggggggg	Scar.mL2449$1	su1	12	24	9.1041
=====!!iiiii	Tru.m.A9,1$1	su1	2	14	4.4881
gmmmmggggggg	Csp.cL1065$1	su1	0	12	9.1041
glllggggggg:	Cko.cL1255$1	su1	0	12	5.0512
gmmmmggggggg	Sce.m.COB,5$1	su1	7	19	9.1041
==lll=======	Naq.cL1255$1	su1	20	32	6.2213
gmmmmggggggg	Tde.mL2449$1	su1	6	18	9.1041
gmmmmggggggg	Lmu.mL2449$1	su1	26	38	9.1041
gmmmmggggggg	Sce.mL24493$1	su1	9	21	9.1041
gmmmmggggggg	Ptu.cL2449$1	su1	14	26	9.1041
gmmmmggggggg	Cmo.m.psaB,1$1	su1	26	38	9.1041
gmmmmggggggg	Kla.mL2449$1	su1	13	25	9.1041
gmmmmggggggg	Cfr.cL1255$1	su1	13	25	9.1041
gmmmmggggggg	Ncr.m.COB,22$1	su1	16	28	9.1041
immmmiiiiiii	Ceu.c.psbC,2$1	su1	36	48	8.5672
gmmmmggggggg	Kth.mL2449$1	su1	13	25	9.1041
ooooohhhhhhh	Pca.mL2449$1	su1	34	46	4.7981
gmmmmggggggg	Tpa.m.ND1,1$1	su1	20	32	9.1041
gmmmmggggggg	Cre.c.psbA,4$1	su1	4	16	9.1041
gmmmmggggggg	Ncr.mL2449$1	su1	13	25	9.1041
gmmmmggggggg	Ama.m.COX2,1$1	su1	12	24	9.1041
gmmmmggggggg	Sdo.mL2449$1	su1	7	19	9.1041
hmmmmhhhhhhh	Ceu.cL1065$1	su1	7	19	7.4444
gmmmmggggggg	Dpa.cL2449$1	su1	13	25	9.1041
d[==========	Hla.cL1065$1	su1	12	24	3.8032
gmmmmggggggg	Cpa.cL2449$1	su1	15	27	9.1041
gmmmmggggggg	Hje.mL2449$1	su1	23	35	9.1041
gmmmmggggggg	Pwi.mL2449$1	su1	12	24	9.1041
gmmmmggggggg	Sce.mL24492$1	su1	9	21	9.1041
gmmmmggggggg	Col.cL2449$1	su1	1	13	9.1041
hhlllhhhhhhh	Pch.mL2449$1	su1	27	39	4.5274
gmmmmggggggg	Kdo.mL2449$1	su1	12	24	9.1041
gmmmmggggggg	Eni.mL2449$1	su1	15	27	9.1041
gmmmmggggggg	Slu.mL2449$1	su1	10	22	9.1041
gmmmmggggggg	Tgl.mL2449$1	su1	6	18	9.1041
gmmmmggggggg	Pan.m.COX2,2$1	su1	12	24	9.1041
gmmmmggggggg	Tpr.mL2449$1	su1	15	27	9.1041
dmmmmddddddd	Dpa.cL1065$1	su1	36	48	5.1631
=mmmm=======	Cca.cL958$1	su1	39	51	8.2969
gmmmmggggggg	Pwi.mL2504$1	su1	12	24	9.1041
=mmmm=======	Pbi.cL2449$1	su1	20	32	8.2969
gmmmmggggggg	Ama.mL2504$1	su1	13	25	9.1041
gmmmmggggggg	Cne.mL2504$1	su1	3	15	9.1041
gmmmmggggggg	Tpa.m.COX2,1$1	su1	23	35	9.1041
emmmmeeeee]a	Pan.m.ND1,3$1	su1	12	24	6.2076
fmmmmffffff]	Scas.mL2449$1	su1	26	38	6.4858
gmmmmggggggg	Ama.mL2449$1	su1	14	26	9.1041
hmmmmhhhhhhh	She.cL1065$1	su1	37	49	7.4444
gmmmmggggggg	Sse.mL2449$1	su1	36	48	9.1041
gmmmmggggggg	Ncr.m.COB,21$1	su1	16	28	9.1041
gmmmmggggggg	Zro.mL2449$1	su1	12	24	9.1041
gmmmmggggggg	Sce.mL24491$1	su1	9	21	9.1041
gmmmmggggggg	Slu.mL2504$1	su1	12	24	9.1041
gmmmmggggggg	Pma.mL2449$1	su1	20	32	9.1041
=mmmm=======	Cps.cL2449$1	su1	9	21	8.2969
gmmmmggggggg	Cbr.cL2449$1	su1	13	25	9.1041
hmmmmhhhhhhh	Cne.mL2449$1	su1	15	27	7.4444
gmmmmggggggg	Aae.mL2449$1	su1	11	23	9.1041
dmmmmdddd]bb	Pan.mL2449$1	su1	23	35	5.2768
=mmmm=======	Ceu.mL2449$1	su1	19	31	8.2969
gmmmmggggggg	Spa.mL2449$1	su1	7	19	9.1041
gmmmmggggggg	Cmo.c.psbA,1$1	su1	10	22	9.1041
hhlllhhhhhhh	Pur.mL2449$1	su1	27	39	4.5274
gmmmmggggggg	Zbi.mL2449$1	su1	11	23	9.1041
=mmmm=======	Cmo.mL2449$1	su1	19	31	8.2969
gmmmmggggggg	Ddi.mL2504$1	su1	13	25	9.1041

#otherMatches

#Seq PSSM
GGUAACAAAUUA	Sex.mL2449$1	su1	21	33	9.1041
GGUGACAAUUUG	Rsp.mL2585$1	su1	9	21	9.1041
GGUAACAGAUUG	Scar.mL2449$1	su1	12	24	9.1041
GUUAAAUGUUUU	Tru.m.A9,1$1	su1	2	14	4.4881
GGAAACCUAAAG	Csp.cL1065$1	su1	0	12	9.1041
UUAAAUUCUCUU	Cko.cL1255$1	su1	0	12	5.0512
UGAAAAUUAUUG	Sce.m.COB,5$1	su1	7	19	9.1041
AUUUCAUUGUGA	Naq.cL1255$1	su1	20	32	6.2213
GGUAACAAAUUG	Tde.mL2449$1	su1	6	18	9.1041
UGAAAGAAUUGG	Lmu.mL2449$1	su1	26	38	9.1041
AGUAAUAUAUUG	Sce.mL24493$1	su1	9	21	9.1041
GGAAACUAUAAG	Ptu.cL2449$1	su1	14	26	9.1041
AGAAAUACUAAG	Cmo.m.psaB,1$1	su1	26	38	9.1041
AGUAAUAUAUUG	Kla.mL2449$1	su1	13	25	9.1041
GGAAACUUAAAG	Cfr.cL1255$1	su1	13	25	9.1041
CUUAAGGGUGUA	Ncr.m.COB,22$1	su1	16	28	9.1041
CUUUUGUUUUUU	Ceu.c.psbC,2$1	su1	36	48	8.5672
AGUAAUAUAUUG	Kth.mL2449$1	su1	13	25	9.1041
UAAAUGGUAUUA	Pca.mL2449$1	su1	34	46	4.7981
UGUGAACUAAUG	Tpa.m.ND1,1$1	su1	20	32	9.1041
UGAAAAAGGUGG	Cre.c.psbA,4$1	su1	4	16	9.1041
UGUGAAUGAUGG	Ncr.mL2449$1	su1	13	25	9.1041
GGAAACUAGUUG	Ama.m.COX2,1$1	su1	12	24	9.1041
GGUAACAGAUUG	Sdo.mL2449$1	su1	7	19	9.1041
UUAAAAGCUUUU	Ceu.cL1065$1	su1	7	19	7.4444
UUAAAAGGUAAG	Dpa.cL2449$1	su1	13	25	9.1041
CUUAUGAUAAUU	Hla.cL1065$1	su1	12	24	3.8032
UGAAAACGUAAG	Cpa.cL2449$1	su1	15	27	9.1041
UUAAAGAAAUGG	Hje.mL2449$1	su1	23	35	9.1041
GGAAACAUUUAG	Pwi.mL2449$1	su1	12	24	9.1041
AGUAAUAUAUUG	Sce.mL24492$1	su1	9	21	9.1041
GGAAACCAAAAG	Col.cL2449$1	su1	1	13	9.1041
CUUCUAGCUGAA	Pch.mL2449$1	su1	27	39	4.5274
AGUAAUAUAUUG	Kdo.mL2449$1	su1	12	24	9.1041
UAAGAAAAGUGG	Eni.mL2449$1	su1	15	27	9.1041
UGUAAAUUACUG	Slu.mL2449$1	su1	10	22	9.1041
GGUAACAAAUUG	Tgl.mL2449$1	su1	6	18	9.1041
UGAAAAAUAUGG	Pan.m.COX2,2$1	su1	12	24	9.1041
AGUAAUAUAUUG	Tpr.mL2449$1	su1	15	27	9.1041
UUUUUAAGGCGC	Dpa.cL1065$1	su1	36	48	5.1631
AUUUUUUAAGUA	Cca.cL958$1	su1	39	51	8.2969
UGUGAAGAGUAG	Pwi.mL2504$1	su1	12	24	9.1041
AAUAUUUAUUUA	Pbi.cL2449$1	su1	20	32	8.2969
UGAAAAUACAUG	Ama.mL2504$1	su1	13	25	9.1041
GGUAACUAGUGA	Cne.mL2504$1	su1	3	15	9.1041
UGAAAAUAUAGG	Tpa.m.COX2,1$1	su1	23	35	9.1041
CGAAAGAACUAG	Pan.m.ND1,3$1	su1	12	24	6.2076
UUUUUAUAUAUA	Scas.mL2449$1	su1	26	38	6.4858
GGAAACUAUUUG	Ama.mL2449$1	su1	14	26	9.1041
UUUAAAAAUUUU	She.cL1065$1	su1	37	49	7.4444
GGUAACAAAUUA	Sse.mL2449$1	su1	36	48	9.1041
CUUAAGGGUGUA	Ncr.m.COB,21$1	su1	16	28	9.1041
AGUAAUAUAUUG	Zro.mL2449$1	su1	12	24	9.1041
AGUAAUAUAUUG	Sce.mL24491$1	su1	9	21	9.1041
UGUGAAAAUAGG	Slu.mL2504$1	su1	12	24	9.1041
UUUGAAAAAUGG	Pma.mL2449$1	su1	20	32	9.1041
UGAAAGCUUAUA	Cps.cL2449$1	su1	9	21	8.2969
GGAAACUAAAAG	Cbr.cL2449$1	su1	13	25	9.1041
AGUGAUAUGCAG	Cne.mL2449$1	su1	15	27	7.4444
AGUAAUAAAUGG	Aae.mL2449$1	su1	11	23	9.1041
UGUAAAAAAUGG	Pan.mL2449$1	su1	23	35	5.2768
GUAUUUGAUUAU	Ceu.mL2449$1	su1	19	31	8.2969
GGUAACAGAUUG	Spa.mL2449$1	su1	7	19	9.1041
UGAAAAAAGUGG	Cmo.c.psbA,1$1	su1	10	22	9.1041
CUUUUAGCUGAA	Pur.mL2449$1	su1	27	39	4.5274
AGUAAUAUAUUG	Zbi.mL2449$1	su1	11	23	9.1041
GUAUUUGAUUAU	Cmo.mL2449$1	su1	19	31	8.2969
UGUGAAUAACUG	Ddi.mL2504$1	su1	13	25	9.1041

#PSSM
g : 0.72	= : 0.10	h : 0.07	d : 0.04	i : 0.01	o : 0.01	e : 0.01	f : 0.01	
m : 0.89	= : 0.02	h : 0.02	l : 0.01	o : 0.01	[ : 0.01	
m : 0.89	l : 0.05	= : 0.02	o : 0.01	
m : 0.89	l : 0.05	= : 0.02	o : 0.01	
m : 0.89	l : 0.04	= : 0.02	g : 0.01	o : 0.01	
g : 0.72	= : 0.10	h : 0.08	d : 0.02	! : 0.01	i : 0.01	e : 0.01	f : 0.01	
g : 0.72	= : 0.10	h : 0.08	d : 0.02	! : 0.01	i : 0.01	e : 0.01	f : 0.01	
g : 0.72	= : 0.10	h : 0.08	i : 0.02	d : 0.02	e : 0.01	f : 0.01	
g : 0.72	= : 0.10	h : 0.08	i : 0.02	d : 0.02	e : 0.01	f : 0.01	
g : 0.72	= : 0.10	h : 0.08	i : 0.02	d : 0.01	e : 0.01	f : 0.01	] : 0.01	
g : 0.72	= : 0.10	h : 0.08	i : 0.02	d : 0.01	] : 0.01	f : 0.01	b : 0.01	
g : 0.70	= : 0.10	h : 0.08	i : 0.02	: : 0.01	d : 0.01	a : 0.01	] : 0.01	b : 0.01	

#score	565.9364734701187
#seq	68
#width	12
#nucCons	0.16
#escape	true